Data Scientist Jobs in San Francisco Bay Area
…
  # parse salary as numbers
  mutate(minsalary = parse_number(minsalary)) %>%
  mutate(maxsalary = parse_number(maxsalary)) %>%
  
  # remove positions that offer hourly wages
  filter(minsalary > 1000 | is.na(minsalary))

df3[,3:7]

## # A tibble: 1,076 x 5
##    city                state zipcode minsalary maxsalary
##    <chr>               <chr> <chr>       <dbl>     <dbl>
##  1 Benicia             CA    94510          NA        NA
##  2 Pleasanton          CA    94566      110000    135000
##  3 San Francisco       CA    <NA>           NA        NA
##  4 San Francisco       CA    94107      150000    200000
##  5 South San Francisco CA    94080          NA        NA
##  6 Redwood City        CA    <NA>           NA        NA
##  7 San Francisco       CA    <NA>       100000    150000
##  8 San Francisco       CA    <NA>           NA        NA
##  9 San Francisco       CA    <NA>           NA        NA
## 10 San Mateo           CA    94401          NA        NA
## #  with 1,066 more rows
…
  # detect java, but not javascript
  if (str_detect(df5[i,8], "java(?![:alpha:])")) {
    df5[i,15] <- "TRUE"
  } else {
    df5[i,15] <- "FALSE"
  }
  
}

df <- df5

df[10:15]

## # A tibble: 1,076 x 6
##    python r     sql   sas   c     java 
##    <chr>  <chr> <chr> <chr> <chr> <chr>
##  1 TRUE   TRUE  TRUE  FALSE TRUE  FALSE
##  2 TRUE   FALSE FALSE FALSE FALSE FALSE
##  3 TRUE   FALSE FALSE FALSE FALSE TRUE 
##  4 TRUE   TRUE  FALSE FALSE FALSE FALSE
##  5 FALSE  TRUE  FALSE TRUE  FALSE FALSE
##  6 TRUE   TRUE  TRUE  FALSE FALSE FALSE
##  7 TRUE   FALSE FALSE FALSE FALSE FALSE
##  8 FALSE  FALSE FALSE FALSE FALSE FALSE
##  9 FALSE  FALSE FALSE FALSE FALSE FALSE
## 10 TRUE   TRUE  FALSE FALSE TRUE  TRUE 
## #  with 1,066 more rows
…
